\relax 
\providecommand\hyper@newdestlabel[2]{}
\providecommand*\new@tpo@label[2]{}
\catcode `"\active 
\catcode `-\active 
\providecommand\HyperFirstAtBeginDocument{\AtBeginDocument}
\HyperFirstAtBeginDocument{\ifx\hyper@anchor\@undefined
\global\let\oldcontentsline\contentsline
\gdef\contentsline#1#2#3#4{\oldcontentsline{#1}{#2}{#3}}
\global\let\oldnewlabel\newlabel
\gdef\newlabel#1#2{\newlabelxx{#1}#2}
\gdef\newlabelxx#1#2#3#4#5#6{\oldnewlabel{#1}{{#2}{#3}}}
\AtEndDocument{\ifx\hyper@anchor\@undefined
\let\contentsline\oldcontentsline
\let\newlabel\oldnewlabel
\fi}
\fi}
\global\let\hyper@last\relax 
\gdef\HyperFirstAtBeginDocument#1{#1}
\providecommand\HyField@AuxAddToFields[1]{}
\providecommand\HyField@AuxAddToCoFields[2]{}
\bibstyle{plain}
\citation{zhang}
\citation{DONDERS20061087,FARHANGFAR20083692}
\citation{Batista03astudy}
\citation{Bengal}
\citation{Salzberg1994}
\citation{SILVARAMIREZ201565}
\citation{rubin,baraldi}
\select@language{czech}
\@writefile{toc}{\select@language{czech}}
\@writefile{lof}{\select@language{czech}}
\@writefile{lot}{\select@language{czech}}
\@writefile{toc}{\contentsline {section}{\numberline {1}\IeC {\'U}vod}{1}{section.1}}
\@writefile{toc}{\contentsline {subsection}{\numberline {1.1}Task -- Impact of single imputation methods on classification error}{1}{subsection.1.1}}
\@writefile{toc}{\contentsline {subsection}{\numberline {1.2}SOTA}{1}{subsection.1.2}}
\@writefile{toc}{\contentsline {subsubsection}{\numberline {1.2.1}Pou\IeC {\v z}\IeC {\'\i }van\IeC {\'e} algoritmy}{1}{subsubsection.1.2.1}}
\@writefile{toc}{\contentsline {subsubsection}{\numberline {1.2.2}Struktura dat}{1}{subsubsection.1.2.2}}
\@writefile{toc}{\contentsline {section}{\numberline {2}Vstupn\IeC {\'\i } data}{2}{section.2}}
\@writefile{toc}{\contentsline {section}{\numberline {3}Metody}{2}{section.3}}
\@writefile{toc}{\contentsline {section}{\numberline {4}V\IeC {\'y}sledky}{2}{section.4}}
\@writefile{toc}{\contentsline {subsection}{\numberline {4.1}P\IeC {\v r}esnost imputace}{2}{subsection.4.1}}
\@writefile{toc}{\contentsline {subsection}{\numberline {4.2}P\IeC {\v r}esnost klasifikace/regrese}{2}{subsection.4.2}}
\bibdata{reference}
\bibcite{baraldi}{{1}{}{{}}{{}}}
\bibcite{Batista03astudy}{{2}{}{{}}{{}}}
\bibcite{DONDERS20061087}{{3}{}{{}}{{}}}
\bibcite{FARHANGFAR20083692}{{4}{}{{}}{{}}}
\bibcite{Bengal}{{5}{}{{}}{{}}}
\bibcite{rubin}{{6}{}{{}}{{}}}
\bibcite{Salzberg1994}{{7}{}{{}}{{}}}
\bibcite{SILVARAMIREZ201565}{{8}{}{{}}{{}}}
\bibcite{zhang}{{9}{}{{}}{{}}}
\providecommand\NAT@force@numbers{}\NAT@force@numbers
\@writefile{toc}{\contentsline {section}{\numberline {5}Z\IeC {\'a}v\IeC {\v e}r}{3}{section.5}}
